LGID,Language,ISO,LAT,LON,Meaning,Form,Annotation,Cognacy
1004,Futuna-Aniwa (Aniwa),fut,-19.5303,170.215,to fly,rere,NA,11
1030,Emae (Makatea),mmw,-17.052,168.399,to fly,rere,NA,11
1055,Mele,mxe,-17.6841,168.275,to fly,rere,NA,11
1119,Futuna-Aniwa (Futuna),fut,-19.5303,170.215,to fly,rere,NA,11
1163,Fila,mxe,-17.6841,168.275,to fly,rere,NA,11
118,Samoan,smo,-14,190,to fly,lele,NA,11
1212,Nukeria,nur,-3.4004,154.731,to fly,rere,(s.),11
1213,Ra'ivavae,aut,-23.3843,210.538,to fly,GeGe,NA,11
1214,Old Rapa (Rapa),ray,-27.6304,215.662,to fly,rere,NA,11
128,Rurutuan,aut,-22.40326096053418,208.82114596395,to fly,rere,(to fly),11
130,Tahitian (18th Century),tah,-17.63614135566132,210.58518674895,to fly,rere,NA,11
152,Pukapuka,pkp,-10.92474206380006,194.15617237558,to fly,lele,lele (sg),11
152,Pukapuka,pkp,-10.92474206380006,194.15617237558,to fly,welele,welele (pl),11
155,Tikopia,tkp,-13.3825991097862,168.9910051861415,to fly,rere,"Run, fly, rush (Fth)",11
156,Futuna-Aniwa,fut,-14.9867139802973,182.60952034904,to fly,rere,NA,11
1626,Mangaia,rar,NA,NA,to fly,rere,NA,11
1628,Penrhyn (Tongareva),pnh,NA,NA,to fly,rere,NA,11
163,Tuvalu,tvl,-8.529416824512362,179.18426513671875,to fly,eva,NA,12
163,Tuvalu,tvl,-8.529416824512362,179.18426513671875,to fly,lele,NA,11
1636,Tahitian,tah,NA,NA,to fly,rere,NA,11
173,Tahitian (Modern),tah,-17.67,210.42,to fly,rere,NA,11
206,Rennellese,mnv,-11.62,160.25,to fly,eba,Soar (Ebt),12
206,Rennellese,mnv,-11.62,160.25,to fly,gege,"Jump, fly, leap, swing (Ebt)",11
210,"Futuna, East",fud,-14.33,181.83,to fly,lele,"Fly, run quickly (Bgs)",11
217,Kapingamarangi,kpg,1.05,154.75,to fly,maangi,"Pollex 06: Maangi. :Fly, flap, as wings.",68
229,Emae,mmw,-17.0967026510254,168.7273379736939,to fly,rere,Fly,11
235,Penrhyn,pnh,-9,202,to fly,rere,"Fly, swing",11
238,Luangiua,ojv,-5.33,159.42,to fly,lele,"Fly, jump",11
239,Mangareva,mrv,-21.58794010110499,223.61809317014,to fly,rere,NA,11
239,Mangareva,mrv,-21.58794010110499,223.61809317014,to fly,rere,"Fly, run, jump",11
242,Ifira-Mele (Mele-Fila),mxe,-17.732990849540233,168.299560546875,to fly,rere,Fly,11
243,Sikaiana,sky,-8.385431015567708,162.740478515625,to fly,lele,"Fly, flow (as a river) (Sps)",11
246,Tuamotu,pmt,-17,216,to fly,rere,"Fly, jump, run v",11
247,Niue,niu,-17.65641657323556,190.4077990877,to fly,lele,Fly (McE),11
253,Anuta,aud,-11.610833,169.850278,to fly,rere,"Fly, run, travel on water (as a boat) (Fbg)",11
258,"Uvea, East",wls,-13.3,183.8,to fly,lele,"Fly, run",11
259,"Uvea, West",uve,-20.643065546726454,166.563720703125,to fly,lele,Fly,11
261,Futuna-Aniwa,fut,-14.9867139802973,182.60952034904,to fly,rere,NA,11
264,Rapanui (Easter Island),rap,-27.117812842321225,250.62835693359,to fly,rere,"Fly, run, leap, jump (Fts)",11
375,Vaeakau-Taumako,piv,-10.22,166.22,to fly,lele,NA,11
481,Tahiti (1773),tah,-17.63614135566132,210.58518674895,to fly,airareÃƒÂ¨,to fly,11
52,Hawaiian,haw,19.559790136497398,204.521484375,to fly,lele,NA,11
559,Bellona,mnv,-11.616667,160.25,to fly,Ã…â€¹eÃ…â€¹e,fly,11
58,Rarotongan,rar,-21.27853125091836,200.25364502626,to fly,rere,"Jump, fly v",11
589,Manihiki,rkh,-10.4,199,to fly,rere,NA,11
64,Nukuoro,nkr,3.83,154.92,to fly,lele,"Fly, jump",11
664,Rapa,ray,-27.63043,215.66248,to fly,rere,NA,11
675,Nuguria,nur,-3.40038,154.73118,to fly,ele,NA,11
675,Nuguria,nur,-3.40038,154.73118,to fly,masani,NA,68
753,Nanumea,tvl,-7.4778,178.69192,to fly,eva,NA,11
753,Nanumea,tvl,-7.4778,178.69192,to fly,lele,NA,11
763,South Island Maori,mri,-40,176,to fly,herere,NA,11
85,Maori,mri,-35.7465122599185,174.0234375,to fly,rere,NA,11
