LGID,Language,ISO,LAT,LON,Meaning,Form,Annotation,Cognacy
1004,Futuna-Aniwa (Aniwa),fut,-19.5303,170.215,grass,Ã…â€¹afari,NA,1
1030,Emae (Makatea),mmw,-17.052,168.399,grass,mauku,NA,58
1055,Mele,mxe,-17.6841,168.275,grass,manamu,NA,68
1119,Futuna-Aniwa (Futuna),fut,-19.5303,170.215,grass,Ã…â€¹afari,NA,1
1163,Fila,mxe,-17.6841,168.275,grass,manamu,NA,68
118,Samoan,smo,-14,190,grass,mutia,NA,13
1212,Nukeria,nur,-3.4004,154.731,grass,mouku,NA,58
1214,Old Rapa (Rapa),ray,-27.6304,215.662,grass,matie,NA,13
128,Rurutuan,aut,-22.40326096053418,208.82114596395,grass,matie,NA,13
136,Tongan,ton,-21.23050210195645,184.85595703125,grass,mohuku,NA,58
155,Tikopia,tkp,-13.3825991097862,168.9910051861415,grass,mauku,"Grass, many types, used as mulch for taro (Fth)",58
156,Futuna-Aniwa,fut,-14.9867139802973,182.60952034904,grass,ngafari,NA,1
1626,Mangaia,rar,NA,NA,grass,mauku,NA,58
1628,Penrhyn (Tongareva),pnh,NA,NA,grass,mauku,NA,58
163,Tuvalu,tvl,-8.529416824512362,179.18426513671875,grass,mouku,NA,58
1636,Tahitian,tah,NA,NA,grass,matie,NA,13
173,Tahitian (Modern),tah,-17.67,210.42,grass,matie,NA,13
206,Rennellese,mnv,-11.62,160.25,grass,mutie,General name for grasses (Ebt),13
210,"Futuna, East",fud,-14.33,181.83,grass,mutie,"Pelouse, gazon",13
229,Emae,mmw,-17.0967026510254,168.7273379736939,grass,mauku,Grass (Clk),58
235,Penrhyn,pnh,-9,202,grass,mauku,"Grass, fern",58
238,Luangiua,ojv,-5.33,159.42,grass,veve,Pollex 06: Veve. :Grass.,30
239,Mangareva,mrv,-21.58794010110499,223.61809317014,grass,mutie,Grass (Bck1938,13
243,Sikaiana,sky,-8.385431015567708,162.740478515625,grass,veve,Pollex 06: Veve. :Grass (Sps).,30
244,Takuu,nho,-4.75,157.033333,grass,mouku,General term for various grasses; area with gardens (Hwd),58
244,Takuu,nho,-4.75,157.033333,grass,vvee,NA,30
245,Tokelau,tkl,-9,188,grass,mutia,Grass (Sma),13
246,Tuamotu,pmt,-17,216,grass,maauku,Sword-grass sp. (Xiphagrostis floridula?),58
246,Tuamotu,pmt,-17,216,grass,moouku,(Xiphagrostis floridula) sword-grass,58
258,"Uvea, East",wls,-13.3,183.8,grass,mohuku,Herbe (Btn) B. [&lt;],58
258,"Uvea, East",wls,-13.3,183.8,grass,musie,"Pelouse, gazon, herbe trainante (Btn)",13
261,Futuna-Aniwa,fut,-14.9867139802973,182.60952034904,grass,ngafari,NA,1
264,Rapanui (Easter Island),rap,-27.117812842321225,250.62835693359,grass,mauku,Term for every kind of grass (Fts),58
264,Rapanui (Easter Island),rap,-27.117812842321225,250.62835693359,grass,mouku,"Grass, hay, straw, herbs (Chl)",58
264,Rapanui (Easter Island),rap,-27.117812842321225,250.62835693359,grass,pua mouku,NA,58
38,Marquesan,mrq,-9,220,grass,mutie,"Herbe, gazon, foin (Dln)",13
52,Hawaiian,haw,19.559790136497398,204.521484375,grass,mau&#039;u,NA,58
559,Bellona,mnv,-11.616667,160.25,grass,mutie,grass,13
58,Rarotongan,rar,-21.27853125091836,200.25364502626,grass,matie(e),"Green, grass (Bse)",13
58,Rarotongan,rar,-21.27853125091836,200.25364502626,grass,mauku,"Grass, rushes, hay, straw (Bse)",58
675,Nuguria,nur,-3.40038,154.73118,grass,mouku,NA,58
753,Nanumea,tvl,-7.4778,178.69192,grass,mauku,NA,58
753,Nanumea,tvl,-7.4778,178.69192,grass,mouku,NA,58
763,South Island Maori,mri,-40,176,grass,maukuuku,NA,58
