LGID,Language,ISO,LAT,LON,Meaning,Form,Annotation,Cognacy
1055,Mele,mxe,-17.6841,168.275,cloud,puao,NA,"12,67"
118,Samoan,smo,-14,190,cloud,ao,NA,12
1213,Ra'ivavae,aut,-23.3843,210.538,cloud,ata,NA,118
1214,Old Rapa (Rapa),ray,-27.6304,215.662,cloud,ata,NA,118
128,Rurutuan,aut,-22.40326096053418,208.82114596395,cloud,ata,Possible Tahitian borrowing but difficult to det.,118
130,Tahitian (18th Century),tah,-17.63614135566132,210.58518674895,cloud,ao,NA,12
130,Tahitian (18th Century),tah,-17.63614135566132,210.58518674895,cloud,ata,NA,118
136,Tongan,ton,-21.23050210195645,184.85595703125,cloud,ÃŠâ€ao,NA,12
152,Pukapuka,pkp,-10.92474206380006,194.15617237558,cloud,kÃ„Âpuao,NA,"12,67"
155,Tikopia,tkp,-13.3825991097862,168.9910051861415,cloud,ao,"Cloud generally, but especially cirrus cloud (Fth)",12
156,Futuna-Aniwa,fut,-14.9867139802973,182.60952034904,cloud,boa,NA,67
156,Futuna-Aniwa,fut,-14.9867139802973,182.60952034904,cloud,tih/tea,To shine after rain (of sun) (Dty),13
1626,Mangaia,rar,NA,NA,cloud,tÃ„Â«ao,NA,"12,117"
1628,Penrhyn (Tongareva),pnh,NA,NA,cloud,Ã…Â,NA,12
1636,Tahitian,tah,NA,NA,cloud,ata,NA,118
173,Tahitian (Modern),tah,-17.67,210.42,cloud,ata,NA,118
206,Rennellese,mnv,-11.62,160.25,cloud,ÃƒÂ o,Cloud,12
210,"Futuna, East",fud,-14.33,181.83,cloud,ko/kofu,"Brouillard, vapeur (Gzl)",14
210,"Futuna, East",fud,-14.33,181.83,cloud,ÃƒÂ o,Cloud,12
217,Kapingamarangi,kpg,1.05,154.75,cloud,kororangi,NA,3
235,Penrhyn,pnh,-9,202,cloud,oo,"Pollex 06: Oo. :Cloud, white cloud (Sta).",12
238,Luangiua,ojv,-5.33,159.42,cloud,puulehu/lehu,Cloud (Tpe),47
239,Mangareva,mrv,-21.58794010110499,223.61809317014,cloud,ao,Cloud (Tgr),12
242,Ifira-Mele (Mele-Fila),mxe,-17.732990849540233,168.299560546875,cloud,pu/ao,Cloud,12
243,Sikaiana,sky,-8.385431015567708,162.740478515625,cloud,lehuna,cloud,47
244,Takuu,nho,-4.75,157.033333,cloud,ao/a,Cloud (Hwd),12
245,Tokelau,tkl,-9,188,cloud,ao,Cloud (Sma),12
246,Tuamotu,pmt,-17,216,cloud,ao,Gleaming cloud (Obs.),12
246,Tuamotu,pmt,-17,216,cloud,titi,"Long, streaky white clouds (Stn)",13
247,Niue,niu,-17.65641657323556,190.4077990877,cloud,ao/lagi,Cloud,12
253,Anuta,aud,-11.610833,169.850278,cloud,ao,Cloud (Fbg),12
258,"Uvea, East",wls,-13.3,183.8,cloud,ÃƒÂ o,Cloud,12
261,Futuna-Aniwa,fut,-14.9867139802973,182.60952034904,cloud,boa,NA,67
261,Futuna-Aniwa,fut,-14.9867139802973,182.60952034904,cloud,tih/tea,To shine after rain (of sun) (Dty),13
264,Rapanui (Easter Island),rap,-27.117812842321225,250.62835693359,cloud,kohu,"Shade, shadow",14
264,Rapanui (Easter Island),rap,-27.117812842321225,250.62835693359,cloud,ragi,NA,3
375,Vaeakau-Taumako,piv,-10.22,166.22,cloud,meluao,NA,12
38,Marquesan,mrq,-9,220,cloud,ao (i),Nuage (Dln),12
481,Tahiti (1773),tah,-17.63614135566132,210.58518674895,cloud,eat,clouds (This is likely [ata] - MW),118
52,Hawaiian,haw,19.559790136497398,204.521484375,cloud,ao,NA,12
559,Bellona,mnv,-11.616667,160.25,cloud,ÃŠâ€ao,cloud,12
58,Rarotongan,rar,-21.27853125091836,200.25364502626,cloud,tiao,NA,"12,117"
58,Rarotongan,rar,-21.27853125091836,200.25364502626,cloud,tumurangi,NA,3
58,Rarotongan,rar,-21.27853125091836,200.25364502626,cloud,tÃ…Â«rangi,NA,3
589,Manihiki,rkh,-10.4,199,cloud,ao,cloud/day/world,12
589,Manihiki,rkh,-10.4,199,cloud,kapua,cloud,67
654,Marquesan (Nukuhiva dialect),mrq,-8.89412,219.89208,cloud,kohu,NA,14
659,Niuafo'ou,num,-15.60144,184.36009,cloud,&#039;ao,NA,12
664,Rapa,ray,-27.63043,215.66248,cloud,ata,Possible Tahitian borrowing but difficult to det.,118
763,South Island Maori,mri,-40,176,cloud,paiao,NA,"12,67"
85,Maori,mri,-35.7465122599185,174.0234375,cloud,kapua,NA,67
