LGID,Language,ISO,LAT,LON,Meaning,Form,Annotation,Cognacy
1004,Futuna-Aniwa (Aniwa),fut,-19.5303,170.215,rain,ua,NA,1
1030,Emae (Makatea),mmw,-17.052,168.399,rain,uÃ‚Â·a,NA,1
1055,Mele,mxe,-17.6841,168.275,rain,ua,NA,1
1119,Futuna-Aniwa (Futuna),fut,-19.5303,170.215,rain,ua,NA,1
1163,Fila,mxe,-17.6841,168.275,rain,ua,NA,1
118,Samoan,smo,-14,190,rain,timu,NA,12
118,Samoan,smo,-14,190,rain,ua,NA,1
1212,Nukeria,nur,-3.4004,154.731,rain,ua,NA,1
1213,Ra'ivavae,aut,-23.3843,210.538,rain,ua,NA,1
128,Rurutuan,aut,-22.40326096053418,208.82114596395,rain,ua,NA,1
130,Tahitian (18th Century),tah,-17.63614135566132,210.58518674895,rain,ua,NA,1
136,Tongan,ton,-21.23050210195645,184.85595703125,rain,ÃŠâ€uha,NA,1
152,Pukapuka,pkp,-10.92474206380006,194.15617237558,rain,u(w)a,NA,1
155,Tikopia,tkp,-13.3825991097862,168.9910051861415,rain,ua,Rain (Fth),1
156,Futuna-Aniwa,fut,-14.9867139802973,182.60952034904,rain,ua,NA,1
1626,Mangaia,rar,NA,NA,rain,ua,NA,1
1628,Penrhyn (Tongareva),pnh,NA,NA,rain,ua,NA,1
163,Tuvalu,tvl,-8.529416824512362,179.18426513671875,rain,ua,NA,1
1636,Tahitian,tah,NA,NA,rain,ua,NA,1
173,Tahitian (Modern),tah,-17.67,210.42,rain,ua,NA,1
206,Rennellese,mnv,-11.62,160.25,rain,&#039;ua,"Rain n, rain v (Ebt)",1
210,"Futuna, East",fud,-14.33,181.83,rain,&#039;ua-ina,"Rain, to rain (Bgs)",1
217,Kapingamarangi,kpg,1.05,154.75,rain,ua,Rain,1
229,Emae,mmw,-17.0967026510254,168.7273379736939,rain,ua,Rain,1
235,Penrhyn,pnh,-9,202,rain,ua,Rain,1
238,Luangiua,ojv,-5.33,159.42,rain,&#039;ua,Rain,1
239,Mangareva,mrv,-21.58794010110499,223.61809317014,rain,ua,NA,1
239,Mangareva,mrv,-21.58794010110499,223.61809317014,rain,ua,Rain,1
242,Ifira-Mele (Mele-Fila),mxe,-17.732990849540233,168.299560546875,rain,ua,Rain,1
243,Sikaiana,sky,-8.385431015567708,162.740478515625,rain,ua,Rain,1
244,Takuu,nho,-4.75,157.033333,rain,ua,Rain,1
245,Tokelau,tkl,-9,188,rain,ua,Rain,1
246,Tuamotu,pmt,-17,216,rain,ua,Rain,1
247,Niue,niu,-17.65641657323556,190.4077990877,rain,uha,Rain,1
253,Anuta,aud,-11.610833,169.850278,rain,ua,Rain,1
258,"Uvea, East",wls,-13.3,183.8,rain,&#039;ua,Rain,1
259,"Uvea, West",uve,-20.643065546726454,166.563720703125,rain,ua,Rain,1
261,Futuna-Aniwa,fut,-14.9867139802973,182.60952034904,rain,ua,NA,1
264,Rapanui (Easter Island),rap,-27.117812842321225,250.62835693359,rain,&#039;uua,NA,1
264,Rapanui (Easter Island),rap,-27.117812842321225,250.62835693359,rain,ua,NA,1
264,Rapanui (Easter Island),rap,-27.117812842321225,250.62835693359,rain,ÃƒÂ»a,NA,1
375,Vaeakau-Taumako,piv,-10.22,166.22,rain,ua,NA,1
38,Marquesan,mrq,-9,220,rain,ua,Pluie (Dln),1
52,Hawaiian,haw,19.559790136497398,204.521484375,rain,ua,NA,1
559,Bellona,mnv,-11.616667,160.25,rain,ÃŠâ€ua,rain,1
58,Rarotongan,rar,-21.27853125091836,200.25364502626,rain,ua,Rain,1
589,Manihiki,rkh,-10.4,199,rain,ua,NA,1
64,Nukuoro,nkr,3.83,154.92,rain,ua,Rain,1
654,Marquesan (Nukuhiva dialect),mrq,-8.89412,219.89208,rain,ua,NA,1
675,Nuguria,nur,-3.40038,154.73118,rain,ua,NA,1
753,Nanumea,tvl,-7.4778,178.69192,rain,timu,NA,12
753,Nanumea,tvl,-7.4778,178.69192,rain,ua,NA,1
763,South Island Maori,mri,-40,176,rain,auha,NA,1
85,Maori,mri,-35.7465122599185,174.0234375,rain,ua,NA,1
