LGID,Language,ISO,LAT,LON,Meaning,Form,Annotation,Cognacy
1004,Futuna-Aniwa (Aniwa),fut,-19.5303,170.215,far,popai,NA,43
1119,Futuna-Aniwa (Futuna),fut,-19.5303,170.215,far,papai,NA,43
1163,Fila,mxe,-17.6841,168.275,far,imao,NA,13
118,Samoan,smo,-14,190,far,mamao,NA,13
1212,Nukeria,nur,-3.4004,154.731,far,mmao,(s.),13
1214,Old Rapa (Rapa),ray,-27.6304,215.662,far,tea,NA,14
128,Rurutuan,aut,-22.40326096053418,208.82114596395,far,aatea,NA,14
136,Tongan,ton,-21.23050210195645,184.85595703125,far,mamaÃŠâ€o,NA,13
152,Pukapuka,pkp,-10.92474206380006,194.15617237558,far,mamao,NA,13
155,Tikopia,tkp,-13.3825991097862,168.9910051861415,far,mamao,Distant (Drd),13
155,Tikopia,tkp,-13.3825991097862,168.9910051861415,far,mao,"Far, at a distance (Fth)",13
156,Futuna-Aniwa,fut,-14.9867139802973,182.60952034904,far,hpai [pÃŠÂ°ai],NA,43
1626,Mangaia,rar,NA,NA,far,mamao,NA,13
163,Tuvalu,tvl,-8.529416824512362,179.18426513671875,far,mao,NA,13
1630,Aitutaki,rar,NA,NA,far,mamao,NA,13
1636,Tahitian,tah,NA,NA,far,Ã„Âtea,NA,14
173,Tahitian (Modern),tah,-17.67,210.42,far,aatea,NA,14
206,Rennellese,mnv,-11.62,160.25,far,mama&#039;o,"Be far, distant (Ebt)",13
210,"Futuna, East",fud,-14.33,181.83,far,mama&#039;o,"Distant, far off (Bgs)",13
210,"Futuna, East",fud,-14.33,181.83,far,taumama&#039;o,Profond,"1,13"
229,Emae,mmw,-17.0967026510254,168.7273379736939,far,mamao,Far (Clk),13
235,Penrhyn,pnh,-9,202,far,momoo,"Far off, distant",13
238,Luangiua,ojv,-5.33,159.42,far,mao,"Pollex 06: Mao. :Far off (Hbn); far, distant (Smd).",13
239,Mangareva,mrv,-21.58794010110499,223.61809317014,far,mama&#039;o,NA,13
243,Sikaiana,sky,-8.385431015567708,162.740478515625,far,mmao,Far (Clk),13
244,Takuu,nho,-4.75,157.033333,far,mmao,"Far off, distant (Hwd)",13
246,Tuamotu,pmt,-17,216,far,mamao,Distant,13
246,Tuamotu,pmt,-17,216,far,taumamao,Distant,13
247,Niue,niu,-17.65641657323556,190.4077990877,far,mamao,Distant,13
253,Anuta,aud,-11.610833,169.850278,far,mamao,far,13
258,"Uvea, East",wls,-13.3,183.8,far,mama&#039;o,"Distant, far off",13
258,"Uvea, East",wls,-13.3,183.8,far,tau mama&#039;o,"Profond, eloigne, distant (Btn)","1,13"
259,"Uvea, West",uve,-20.643065546726454,166.563720703125,far,mumao,"Far off, distant",13
261,Futuna-Aniwa,fut,-14.9867139802973,182.60952034904,far,hpai [pÃŠÂ°ai],NA,43
375,Vaeakau-Taumako,piv,-10.22,166.22,far,mao,NA,13
38,Marquesan,mrq,-9,220,far,mamao,NA,13
38,Marquesan,mrq,-9,220,far,mema&#039;o,?,13
52,Hawaiian,haw,19.559790136497398,204.521484375,far,mamao,NA,13
559,Bellona,mnv,-11.616667,160.25,far,mamaÃŠâ€o,far,13
58,Rarotongan,rar,-21.27853125091836,200.25364502626,far,mamao,Distant,13
589,Manihiki,rkh,-10.4,199,far,momoo,far,13
64,Nukuoro,nkr,3.83,154.92,far,mmao,Distant,13
654,Marquesan (Nukuhiva dialect),mrq,-8.89412,219.89208,far,mamao,NA,13
659,Niuafo'ou,num,-15.60144,184.36009,far,mama&#039;o,distant,13
753,Nanumea,tvl,-7.4778,178.69192,far,mamao,NA,13
