LGID,Language,ISO,LAT,LON,Meaning,Form,Annotation,Cognacy
118,Samoan,smo,-14,190,Twenty,lua sefulu,NA,"3,6"
1212,Nukeria,nur,-3.4004,154.731,Twenty,tipu rua,NA,3
1214,Old Rapa (Rapa),ray,-27.6304,215.662,Twenty,rua roÃ…â€¹ouru,NA,"3,6"
130,Tahitian (18th Century),tah,-17.63614135566132,210.58518674895,Twenty,ta&#039;au,NA,4
136,Tongan,ton,-21.23050210195645,184.85595703125,Twenty,tekau,"Twenty, score (Cwd).(Source: Pollex)",4
152,Pukapuka,pkp,-10.92474206380006,194.15617237558,Twenty,laulua,traditional Puk.,5
152,Pukapuka,pkp,-10.92474206380006,194.15617237558,Twenty,tinolua,20 people,3
1626,Mangaia,rar,NA,NA,Twenty,takau,NA,4
1628,Penrhyn (Tongareva),pnh,NA,NA,Twenty,tekau,NA,4
163,Tuvalu,tvl,-8.529416824512362,179.18426513671875,Twenty,lua sefulu,NA,"3,6"
1636,Tahitian,tah,NA,NA,Twenty,piti &#039;ahuru,NA,"28,6"
173,Tahitian (Modern),tah,-17.67,210.42,Twenty,piti &#039;ahuru,NA,"28,6"
173,Tahitian (Modern),tah,-17.67,210.42,Twenty,ta&#039;au,"Vingt, (dix couples).(Source: Pollex)",4
210,"Futuna, East",fud,-14.33,181.83,Twenty,kaulua,NA,5
239,Mangareva,mrv,-21.58794010110499,223.61809317014,Twenty,takau,NA,4
242,Ifira-Mele (Mele-Fila),mxe,-17.732990849540233,168.299560546875,Twenty,ngofuru e&#039;rua,NA,"6,3"
245,Tokelau,tkl,-9,188,Twenty,tekau,Twenty Skipjack (Sma).(Source: Pollex),4
247,Niue,niu,-17.65641657323556,190.4077990877,Twenty,tekau,Twenty (only used in counting fish).(Source: Pollex),4
375,Vaeakau-Taumako,piv,-10.22,166.22,Twenty,gatoaelua,NA,5
38,Marquesan,mrq,-9,220,Twenty,tekau,Twenty.(Source: Pollex),4
52,Hawaiian,haw,19.559790136497398,204.521484375,Twenty,iwakÃ„Âlua,NA,5
58,Rarotongan,rar,-21.27853125091836,200.25364502626,Twenty,rua ngauru-,NA,"3,6"
675,Nuguria,nur,-3.40038,154.73118,Twenty,lua/hoi,NA,3
753,Nanumea,tvl,-7.4778,178.69192,Twenty,tekau,NA,4
763,South Island Maori,mri,-40,176,Twenty,takau,NA,4
85,Maori,mri,-35.7465122599185,174.0234375,Twenty,rua tekau,"Twenty (obs.), ten (mod) (Bgs).(Source: Pollex)","3,4"
