LGID,Language,ISO,LAT,LON,Meaning,Form,Annotation,Cognacy
1004,Futuna-Aniwa (Aniwa),fut,-19.5303,170.215,to sleep,moro,NA,63
1030,Emae (Makatea),mmw,-17.052,168.399,to sleep,moe,NA,"10,109"
1030,Emae (Makatea),mmw,-17.052,168.399,to sleep,Ã…â€¹oro,NA,63
1055,Mele,mxe,-17.6841,168.275,to sleep,moe,NA,"10,109"
1119,Futuna-Aniwa (Futuna),fut,-19.5303,170.215,to sleep,mÃŠÂ·eroa,NA,63
1163,Fila,mxe,-17.6841,168.275,to sleep,moe,NA,"10,109"
118,Samoan,smo,-14,190,to sleep,moe,NA,"10,109"
1212,Nukeria,nur,-3.4004,154.731,to sleep,moe,(s.),"10,109"
1213,Ra'ivavae,aut,-23.3843,210.538,to sleep,moe,NA,"10,109"
1214,Old Rapa (Rapa),ray,-27.6304,215.662,to sleep,komo,NA,"10,109"
128,Rurutuan,aut,-22.40326096053418,208.82114596395,to sleep,moe,NA,"10,109"
130,Tahitian (18th Century),tah,-17.63614135566132,210.58518674895,to sleep,moe,NA,"10,109"
136,Tongan,ton,-21.23050210195645,184.85595703125,to sleep,mohe,NA,"10,109"
152,Pukapuka,pkp,-10.92474206380006,194.15617237558,to sleep,moe,NA,"10,109"
152,Pukapuka,pkp,-10.92474206380006,194.15617237558,to sleep,momoe,pl,"10,109"
155,Tikopia,tkp,-13.3825991097862,168.9910051861415,to sleep,moe,"Lie down, sleep, die (Fth)","10,109"
156,Futuna-Aniwa,fut,-14.9867139802973,182.60952034904,to sleep,moeroa,NA,"10,109"
1626,Mangaia,rar,NA,NA,to sleep,moe,NA,"10,109"
1628,Penrhyn (Tongareva),pnh,NA,NA,to sleep,moe,NA,"10,109"
163,Tuvalu,tvl,-8.529416824512362,179.18426513671875,to sleep,moe,NA,"10,109"
1636,Tahitian,tah,NA,NA,to sleep,moe,NA,"10,109"
206,Rennellese,mnv,-11.62,160.25,to sleep,moe,"Sleep, lie down, have sex (Ebt)","10,109"
210,"Futuna, East",fud,-14.33,181.83,to sleep,moe,"Lie down, sleep (Bgs)","10,109"
229,Emae,mmw,-17.0967026510254,168.7273379736939,to sleep,moe,Sleep,"10,109"
235,Penrhyn,pnh,-9,202,to sleep,moe,Sleep,"10,109"
238,Luangiua,ojv,-5.33,159.42,to sleep,moe,Sleep,"10,109"
239,Mangareva,mrv,-21.58794010110499,223.61809317014,to sleep,moe,NA,"10,109"
239,Mangareva,mrv,-21.58794010110499,223.61809317014,to sleep,moe,Sleep,"10,109"
242,Ifira-Mele (Mele-Fila),mxe,-17.732990849540233,168.299560546875,to sleep,moe,"Sleep, lie down (Clk)","10,109"
243,Sikaiana,sky,-8.385431015567708,162.740478515625,to sleep,moe,Sleep,"10,109"
244,Takuu,nho,-4.75,157.033333,to sleep,moe,Sleep (Hwd),"10,109"
246,Tuamotu,pmt,-17,216,to sleep,moe,Sleep,"10,109"
247,Niue,niu,-17.65641657323556,190.4077990877,to sleep,mohe,Sleep,"10,109"
253,Anuta,aud,-11.610833,169.850278,to sleep,moe,sleep,"10,109"
258,"Uvea, East",wls,-13.3,183.8,to sleep,moe,Sleep,"10,109"
259,"Uvea, West",uve,-20.643065546726454,166.563720703125,to sleep,moe,Sleep,"10,109"
261,Futuna-Aniwa,fut,-14.9867139802973,182.60952034904,to sleep,moeroa,NA,"10,109"
264,Rapanui (Easter Island),rap,-27.117812842321225,250.62835693359,to sleep,moe,Sleep,"10,109"
375,Vaeakau-Taumako,piv,-10.22,166.22,to sleep,moe,NA,"10,109"
38,Marquesan,mrq,-9,220,to sleep,hiamoe,NA,"10,109"
52,Hawaiian,haw,19.559790136497398,204.521484375,to sleep,moe,NA,"10,109"
559,Bellona,mnv,-11.616667,160.25,to sleep,moe,sleep,"10,109"
58,Rarotongan,rar,-21.27853125091836,200.25364502626,to sleep,moe,Sleep,"10,109"
589,Manihiki,rkh,-10.4,199,to sleep,moe,NA,"10,109"
64,Nukuoro,nkr,3.83,154.92,to sleep,moe,Sleep,"10,109"
654,Marquesan (Nukuhiva dialect),mrq,-8.89412,219.89208,to sleep,hiamoe,NA,"10,109"
659,Niuafo'ou,num,-15.60144,184.36009,to sleep,moe,NA,"10,109"
664,Rapa,ray,-27.63043,215.66248,to sleep,ÃŠâ€aka/moe,NA,"10,109"
675,Nuguria,nur,-3.40038,154.73118,to sleep,u/moe,NA,"10,109"
753,Nanumea,tvl,-7.4778,178.69192,to sleep,moe,NA,"10,109"
763,South Island Maori,mri,-40,176,to sleep,moe,NA,"10,109"
85,Maori,mri,-35.7465122599185,174.0234375,to sleep,moe,NA,"10,109"
