LGID,Language,ISO,LAT,LON,Meaning,Form,Annotation,Cognacy
1004,Futuna-Aniwa (Aniwa),fut,-19.5303,170.215,rope,wawa,NA,74
1030,Emae (Makatea),mmw,-17.052,168.399,rope,faÃŽÂ²a,NA,74
1055,Mele,mxe,-17.6841,168.275,rope,ÃŽÂ²aÃŽÂ²a,NA,74
1119,Futuna-Aniwa (Futuna),fut,-19.5303,170.215,rope,ÃŽÂ²aÃŽÂ²a,NA,74
1163,Fila,mxe,-17.6841,168.275,rope,mea,NA,10
1163,Fila,mxe,-17.6841,168.275,rope,wawa,NA,74
118,Samoan,smo,-14,190,rope,maea,NA,10
1212,Nukeria,nur,-3.4004,154.731,rope,haha,(to steer sail with),74
1212,Nukeria,nur,-3.4004,154.731,rope,kaha,(braided of coconut fibre),74
1212,Nukeria,nur,-3.4004,154.731,rope,maea,"(big, used for ships)",10
1212,Nukeria,nur,-3.4004,154.731,rope,tuaa-uka,(a kind of),73
1212,Nukeria,nur,-3.4004,154.731,rope,uka,"(small, also string, cord, sinew, veins)",73
1214,Old Rapa (Rapa),ray,-27.6304,215.662,rope,taura,NA,9
128,Rurutuan,aut,-22.40326096053418,208.82114596395,rope,taura,NA,9
130,Tahitian (18th Century),tah,-17.63614135566132,210.58518674895,rope,taura,NA,9
136,Tongan,ton,-21.23050210195645,184.85595703125,rope,maea,NA,10
152,Pukapuka,pkp,-10.92474206380006,194.15617237558,rope,kawa,NA,74
152,Pukapuka,pkp,-10.92474206380006,194.15617237558,rope,taula,NA,9
155,Tikopia,tkp,-13.3825991097862,168.9910051861415,rope,maea,"Rope, line",10
156,Futuna-Aniwa,fut,-14.9867139802973,182.60952034904,rope,taura,Rope (Cpl),9
156,Futuna-Aniwa,fut,-14.9867139802973,182.60952034904,rope,vava,NA,74
1626,Mangaia,rar,NA,NA,rope,taura,NA,9
1628,Penrhyn (Tongareva),pnh,NA,NA,rope,taura,NA,9
163,Tuvalu,tvl,-8.529416824512362,179.18426513671875,rope,maea,NA,10
1636,Tahitian,tah,NA,NA,rope,nape,NA,64
1636,Tahitian,tah,NA,NA,rope,taura,NA,9
173,Tahitian (Modern),tah,-17.67,210.42,rope,taura,NA,9
206,Rennellese,mnv,-11.62,160.25,rope,tauga,"Rope, line, to tie (Ebt)",9
210,"Futuna, East",fud,-14.33,181.83,rope,maea,"Cord, cable (Bgs)",10
210,"Futuna, East",fud,-14.33,181.83,rope,taula,"Ancre, cable (Gzl)",9
217,Kapingamarangi,kpg,1.05,154.75,rope,moea,"Very thick rope, especially as used for hauling whales (Obs)",10
217,Kapingamarangi,kpg,1.05,154.75,rope,taura,"Anchor, rope (Ebt)",9
229,Emae,mmw,-17.0967026510254,168.7273379736939,rope,maea,Braided rope (Clk),10
235,Penrhyn,pnh,-9,202,rope,taura,Rope (Yda),9
238,Luangiua,ojv,-5.33,159.42,rope,maea,rope,10
239,Mangareva,mrv,-21.58794010110499,223.61809317014,rope,toura,"Corde, filet (Jnu)",9
242,Ifira-Mele (Mele-Fila),mxe,-17.732990849540233,168.299560546875,rope,maea,Rope (European type),10
243,Sikaiana,sky,-8.385431015567708,162.740478515625,rope,maea,rope,10
244,Takuu,nho,-4.75,157.033333,rope,maea,Rope (Hwd),10
246,Tuamotu,pmt,-17,216,rope,taura,NA,9
247,Niue,niu,-17.65641657323556,190.4077990877,rope,toua,"Rope, cord (McE) (Tgr)",9
253,Anuta,aud,-11.610833,169.850278,rope,maea,Heavy rope (Fbg),10
258,"Uvea, East",wls,-13.3,183.8,rope,maea,"Corde, cable Btn)",10
258,"Uvea, East",wls,-13.3,183.8,rope,taula,"Ancre, cable (Btn)",9
259,"Uvea, West",uve,-20.643065546726454,166.563720703125,rope,u/maea,Pollex 06: U/maea/. :Rope (U 1888) (Hmn).,10
261,Futuna-Aniwa,fut,-14.9867139802973,182.60952034904,rope,taura,Rope (Cpl),9
261,Futuna-Aniwa,fut,-14.9867139802973,182.60952034904,rope,vava,NA,74
264,Rapanui (Easter Island),rap,-27.117812842321225,250.62835693359,rope,taura,"Cable, cord, rope, string (Fts)",9
38,Marquesan,mrq,-9,220,rope,touÃƒÂ ,"Corde, grosse corde (Dln)",9
481,Tahiti (1773),tah,-17.63614135566132,210.58518674895,rope,taod,thick rope,9
52,Hawaiian,haw,19.559790136497398,204.521484375,rope,kaula,NA,9
559,Bellona,mnv,-11.616667,160.25,rope,uka,rope,73
58,Rarotongan,rar,-21.27853125091836,200.25364502626,rope,taura,"Rope, cord (Sve)",9
589,Manihiki,rkh,-10.4,199,rope,taula,NA,9
64,Nukuoro,nkr,3.83,154.92,rope,maea,Rope type (thickest),10
654,Marquesan (Nukuhiva dialect),mrq,-8.89412,219.89208,rope,tou&#039;a,NA,9
659,Niuafo'ou,num,-15.60144,184.36009,rope,maea,NA,10
664,Rapa,ray,-27.63043,215.66248,rope,taura,NA,9
675,Nuguria,nur,-3.40038,154.73118,rope,maia,rope/string/band,10
753,Nanumea,tvl,-7.4778,178.69192,rope,kafa,NA,74
753,Nanumea,tvl,-7.4778,178.69192,rope,maea,NA,10
763,South Island Maori,mri,-40,176,rope,taura,NA,9
85,Maori,mri,-35.7465122599185,174.0234375,rope,taura,NA,9
